{ 	
	"materials":
	[
		{
			"cylinderColor":[{"r":255,"g":250,"b":250,"a":1}],
			"tableColor":[{"r":121,"g":123,"b":242,"a":1}],
			"ballColor":[{"r":0,"g":0,"b":0,"a":1}],
			"enemyColor":[{"r":239,"g":242,"b":141,"a":1}]
		}
	],
	"leveles":
	[
		{
			"id":"0",
			"Name":"CylinderStart",
			"platforms":
			[
				{
					"id":"0",
					"Name":"enemy"
				},
				{
					"id":"1",
					"Name":"enemy"
				},
				{
					"id":"2",
					"Name":"next"
				},
				{
					"id":"3",
					"Name":"tableEnemy"
				},
				{
					"id":"4",
					"Name":"table"
				},
				{
					"id":"5",
					"Name":"table"
				},
				{
					"id":"6",
					"Name":"next"
				},
				{
					"id":"7",
					"Name":"table"
				},
				{
					"id":"8",
					"Name":"next"
				},
				{
					"id":"9",
					"Name":"enemyWalking"
				},
				{
					"id":"10",
					"Name":"table"
				},
				{
					"id":"11",
					"Name":"table"
				}
			
			]
		},
		{
			"id":"1",
			"Name":"CylinderNext",
			"platforms":
			[
				{
					"id":"0",
					"Name":"table"
				},
				{
					"id":"1",
					"Name":"tableEnemy"
				},
				{
					"id":"2",
					"Name":"enemy"
				},
				{
					"id":"3",
					"Name":"next"
				},
				{
					"id":"4",
					"Name":"table"
				},
				{
					"id":"5",
					"Name":"table"
				},
				{
					"id":"6",
					"Name":"table"
				},
				{
					"id":"7",
					"Name":"next"
				},
				{
					"id":"8",
					"Name":"table"
				},
				{
					"id":"9",
					"Name":"next"
				},
				{
					"id":"10",
					"Name":"table"
				},
				{
					"id":"11",
					"Name":"table"
				}
			
			]
		},
		{
			"id":"2",
			"Name":"CylinderNext",
			"platforms":
			[
				{
					"id":"0",
					"Name":"table"
				},
				{
					"id":"1",
					"Name":"table"
				},
				{
					"id":"2",
					"Name":"enemy"
				},
				{
					"id":"3",
					"Name":"tableEnemy"
				},
				{
					"id":"4",
					"Name":"enemy"
				},
				{
					"id":"5",
					"Name":"table"
				},
				{
					"id":"6",
					"Name":"next"
				},
				{
					"id":"7",
					"Name":"table"
				},
				{
					"id":"8",
					"Name":"table"
				},
				{
					"id":"9",
					"Name":"table"
				},
				{
					"id":"10",
					"Name":"next"
				},
				{
					"id":"11",
					"Name":"enemy"
				}
			
			]
		},
		{
			"id":"3",
			"Name":"CylinderNext",
			"platforms":
			[
				{
					"id":"0",
					"Name":"table"
				},
				{
					"id":"1",
					"Name":"tableEnemy"
				},
				{
					"id":"2",
					"Name":"table"
				},
				{
					"id":"3",
					"Name":"next"
				},
				{
					"id":"4",
					"Name":"tableEnemy"
				},
				{
					"id":"5",
					"Name":"enemy"
				},
				{
					"id":"6",
					"Name":"table"
				},
				{
					"id":"7",
					"Name":"next"
				},
				{
					"id":"8",
					"Name":"table"
				},
				{
					"id":"9",
					"Name":"next"
				},
				{
					"id":"10",
					"Name":"table"
				},
				{
					"id":"11",
					"Name":"table"
				}
			
			]
		},
		{
			"id":"4",
			"Name":"CylinderNext",
			"platforms":
			[
				{
					"id":"0",
					"Name":"next"
				},
				{
					"id":"1",
					"Name":"table"
				},
				{
					"id":"2",
					"Name":"table"
				},
				{
					"id":"3",
					"Name":"tableEnemy"
				},
				{
					"id":"4",
					"Name":"enemy"
				},
				{
					"id":"5",
					"Name":"table"
				},
				{
					"id":"6",
					"Name":"table"
				},2
				{
					"id":"7",
					"Name":"table"
				},
				{
					"id":"8",
					"Name":"table"
				},
				{
					"id":"9",
					"Name":"table"
				},
				{
					"id":"10",
					"Name":"enemy"
				},
				{
					"id":"11",
					"Name":"next"
				}
			]
		},
		{
			"id":"5",
			"Name":"CylinderNext",
			"platforms":
			[
				{
					"id":"0",
					"Name":"table"
				},
				{
					"id":"1",
					"Name":"next"
				},
				{
					"id":"2",
					"Name":"table"
				},
				{
					"id":"3",
					"Name":"tableEnemy"
				},
				{
					"id":"4",
					"Name":"table"
				},
				{
					"id":"5",
					"Name":"table"
				},
				{
					"id":"6",
					"Name":"enemy"
				},
				{
					"id":"7",
					"Name":"enemyWalking"
				},
				{
					"id":"8",
					"Name":"enemy"
				},
				{
					"id":"9",
					"Name":"table"
				},
				{
					"id":"10",
					"Name":"enemy"
				},
				{
					"id":"11",
					"Name":"table"
				}
			
			]
		},
		{
			"id":"6",
			"Name":"CylinderNext",
			"platforms":
			[
				{
					"id":"0",
					"Name":"enemy"
				},
				{
					"id":"1",
					"Name":"next"
				},
				{
					"id":"2",
					"Name":"tableEnemy"
				},
				{
					"id":"3",
					"Name":"table"
				},
				{
					"id":"4",
					"Name":"next"
				},
				{
					"id":"5",
					"Name":"enemy"
				},
				{
					"id":"6",
					"Name":"table"
				},
				{
					"id":"7",
					"Name":"tableEnemy"
				},
				{
					"id":"8",
					"Name":"tableEnemy"
				},
				{
					"id":"9",
					"Name":"next"
				},
				{
					"id":"10",
					"Name":"enemy"
				},
				{
					"id":"11",
					"Name":"table"
				}
			
			]
		},
		{
			"id":"7",
			"Name":"CylinderNext",
			"platforms":
			[
				{
					"id":"0",
					"Name":"table"
				},
				{
					"id":"1",
					"Name":"table"
				},
				{
					"id":"2",
					"Name":"enemy"
				},
				{
					"id":"3",
					"Name":"enemyWalking"
				},
				{
					"id":"4",
					"Name":"next"
				},
				{
					"id":"5",
					"Name":"enemy"
				},
				{
					"id":"6",
					"Name":"table"
				},
				{
					"id":"7",
					"Name":"table"
				},
				{
					"id":"8",
					"Name":"table"
				},
				{
					"id":"9",
					"Name":"enemy"
				},
				{
					"id":"10",
					"Name":"next"
				},
				{
					"id":"11",
					"Name":"enemy"
				}
			
			]
		},
		{
			"id":"8",
			"Name":"CylinderNext",
			"platforms":
			[
				{
					"id":"0",
					"Name":"table"
				},
				{
					"id":"1",
					"Name":"enemyWalking"
				},
				{
					"id":"2",
					"Name":"enemy"
				},
				{
					"id":"3",
					"Name":"table"
				},
				{
					"id":"4",
					"Name":"tableEnemy"
				},
				{
					"id":"5",
					"Name":"table"
				},
				{
					"id":"6",
					"Name":"enemy"
				},
				{
					"id":"7",
					"Name":"next"
				},
				{
					"id":"8",
					"Name":"table"
				},
				{
					"id":"9",
					"Name":"enemy"
				},
				{
					"id":"10",
					"Name":"enemy"
				},
				{
					"id":"11",
					"Name":"next"
				}
			
			]
		},
		{
			"id":"9",
			"Name":"CylinderNext",
			"platforms":
			[
				{
					"id":"0",
					"Name":"enemy"
				},
				{
					"id":"1",
					"Name":"enemyWalking"
				},
				{
					"id":"2",
					"Name":"enemyWalking"
				},
				{
					"id":"3",
					"Name":"table"
				},
				{
					"id":"4",
					"Name":"enemyWalking"
				},
				{
					"id":"5",
					"Name":"next"
				},
				{
					"id":"6",
					"Name":"table"
				},
				{
					"id":"7",
					"Name":"table"
				},
				{
					"id":"8",
					"Name":"tableEnemy"
				},
				{
					"id":"9",
					"Name":"next"
				},
				{
					"id":"10",
					"Name":"table"
				},
				{
					"id":"11",
					"Name":"enemyWalking"
				}
			
			]
		},
		{
			"id":"10",
			"Name":"CylinderNext",
			"platforms":
			[
				{
					"id":"0",
					"Name":"next"
				},
				{
					"id":"1",
					"Name":"table"
				},
				{
					"id":"2",
					"Name":"table"
				},
				{
					"id":"3",
					"Name":"table"
				},
				{
					"id":"4",
					"Name":"enemy"
				},
				{
					"id":"5",
					"Name":"next"
				},
				{
					"id":"6",
					"Name":"enemyWalking"
				},
				{
					"id":"7",
					"Name":"tableEnemy"
				},
				{
					"id":"8",
					"Name":"next"
				},
				{
					"id":"9",
					"Name":"table"
				},
				{
					"id":"10",
					"Name":"enemy"
				},
				{
					"id":"11",
					"Name":"enemy"
				}
			
			]
		},
		{
			"id":"11",
			"Name":"CylinderNext",
			"platforms":
			[
				{
					"id":"0",
					"Name":"table"
				},
				{
					"id":"1",
					"Name":"table"
				},
				{
					"id":"2",
					"Name":"enemy"
				},
				{
					"id":"3",
					"Name":"table"
				},
				{
					"id":"4",
					"Name":"enemyWalking"
				},
				{
					"id":"5",
					"Name":"enemy"
				},
				{
					"id":"6",
					"Name":"enemyWalking"
				},
				{
					"id":"7",
					"Name":"next"
				},
				{
					"id":"8",
					"Name":"table"
				},
				{
					"id":"9",
					"Name":"enemyWalking"
				},
				{
					"id":"10",
					"Name":"table"
				},
				{
					"id":"11",
					"Name":"enemy"
				}
			
			]
		},
	    {
			"id":"12",
			"Name":"CylinderNext",
			"platforms":
			[
				{
					"id":"0",
					"Name":"enemyWalking"
				},
				{
					"id":"1",
					"Name":"next"
				},
				{
					"id":"2",
					"Name":"enemy"
				},
				{
					"id":"3",
					"Name":"table"
				},
				{
					"id":"4",
					"Name":"table"
				},
				{
					"id":"5",
					"Name":"enemy"
				},
				{
					"id":"6",
					"Name":"next"
				},
				{
					"id":"7",
					"Name":"tableEnemy"
				},
				{
					"id":"8",
					"Name":"buffShield"
				},
				{
					"id":"9",
					"Name":"table"
				},
				{
					"id":"10",
					"Name":"buffDamage"
				},
				{
					"id":"11",
					"Name":"enemyWalking"
				}
			
			]
		},
		{
			"id":"13",
			"Name":"CylinderNext",
			"platforms":
			[
				{
					"id":"0",
					"Name":"table"
				},
				{
					"id":"1",
					"Name":"next"
				},
				{
					"id":"2",
					"Name":"table"
				},
				{
					"id":"3",
					"Name":"enemyWalking"
				},
				{
					"id":"4",
					"Name":"next"
				},
				{
					"id":"5",
					"Name":"enemy"
				},
				{
					"id":"6",
					"Name":"table"
				},
				{
					"id":"7",
					"Name":"table"
				},
				{
					"id":"8",
					"Name":"enemy"
				},
				{
					"id":"9",
					"Name":"table"
				},
				{
					"id":"10",
					"Name":"tableEnemy"
				},
				{
					"id":"11",
					"Name":"next"
				}
			
			]
		},
		{
			"id":"14",
			"Name":"CylinderNext",
			"platforms":
			[
				{
					"id":"0",
					"Name":"enemy"
				},
				{
					"id":"1",
					"Name":"table"
				},
				{
					"id":"2",
					"Name":"enemyWalking"
				},
				{
					"id":"3",
					"Name":"next"
				},
				{
					"id":"4",
					"Name":"table"
				},
				{
					"id":"5",
					"Name":"next"
				},
				{
					"id":"6",
					"Name":"enemyWalking"
				},
				{
					"id":"7",
					"Name":"table"
				},
				{
					"id":"8",
					"Name":"next"
				},
				{
					"id":"9",
					"Name":"enemyWalking"
				},
				{
					"id":"10",
					"Name":"table"
				},
				{
					"id":"11",
					"Name":"tableEnemy"
				}
			
			]
		},
		{
			"id":"15",
			"Name":"CylinderNext",
			"platforms":
			[
				{
					"id":"0",
					"Name":"enemyWalking"
				},
				{
					"id":"1",
					"Name":"table"
				},
				{
					"id":"2",
					"Name":"next"
				},
				{
					"id":"3",
					"Name":"tableEnemy"
				},
				{
					"id":"4",
					"Name":"enemy"
				},
				{
					"id":"5",
					"Name":"table"
				},
				{
					"id":"6",
					"Name":"table"
				},
				{
					"id":"7",
					"Name":"next"
				},
				{
					"id":"8",
					"Name":"enemyWalking"
				},
				{
					"id":"9",
					"Name":"table"
				},
				{
					"id":"10",
					"Name":"table"
				},
				{
					"id":"11",
					"Name":"tableEnemy"
				}
			
			]
		},
		{
			"id":"16",
			"Name":"CylinderNext",
			"platforms":
			[
				{
					"id":"0",
					"Name":"enemyWalking"
				},
				{
					"id":"1",
					"Name":"enemy"
				},
				{
					"id":"2",
					"Name":"next"
				},
				{
					"id":"3",
					"Name":"table"
				},
				{
					"id":"4",
					"Name":"tableEnemy"
				},
				{
					"id":"5",
					"Name":"table"
				},
				{
					"id":"6",
					"Name":"next"
				},
				{
					"id":"7",
					"Name":"table"
				},
				{
					"id":"8",
					"Name":"table"
				},
				{
					"id":"9",
					"Name":"enemy"
				},
				{
					"id":"10",
					"Name":"table"
				},
				{
					"id":"11",
					"Name":"table"
				}
			
			]
		},
		{
			"id":"17",
			"Name":"CylinderNext",
			"platforms":
			[
				{
					"id":"0",
					"Name":"enemy"
				},
				{
					"id":"1",
					"Name":"next"
				},
				{
					"id":"2",
					"Name":"table"
				},
				{
					"id":"3",
					"Name":"enemyWalking"
				},
				{
					"id":"4",
					"Name":"table"
				},
				{
					"id":"5",
					"Name":"enemyWalking"
				},
				{
					"id":"6",
					"Name":"next"
				},
				{
					"id":"7",
					"Name":"table"
				},
				{
					"id":"8",
					"Name":"table"
				},
				{
					"id":"9",
					"Name":"tableEnemy"
				},
				{
					"id":"10",
					"Name":"next"
				},
				{
					"id":"11",
					"Name":"enemy"
				}
			
			]
		},		
		{
			"id":"18",
			"Name":"CylinderNext",
			"platforms":
			[
				{
					"id":"0",
					"Name":"next"
				},
				{
					"id":"1",
					"Name":"enemyWalking"
				},
				{
					"id":"2",
					"Name":"table"
				},
				{
					"id":"3",
					"Name":"table"
				},
				{
					"id":"4",
					"Name":"table"
				},
				{
					"id":"5",
					"Name":"table"
				},
				{
					"id":"6",
					"Name":"enemyWalking"
				},
				{
					"id":"7",
					"Name":"next"
				},
				{
					"id":"8",
					"Name":"enemyWalking"
				},
				{
					"id":"9",
					"Name":"table"
				},
				{
					"id":"10",
					"Name":"table"
				},
				{
					"id":"11",
					"Name":"enemy"
				}
			
			]
		},
		{
			"id":"19",
			"Name":"CylinderNext",
			"platforms":
			[
				{
					"id":"0",
					"Name":"table"
				},
				{
					"id":"1",
					"Name":"table"
				},
				{
					"id":"2",
					"Name":"enemy"
				},
				{
					"id":"3",
					"Name":"enemyWalking"
				},
				{
					"id":"4",
					"Name":"table"
				},
				{
					"id":"5",
					"Name":"table"
				},
				{
					"id":"6",
					"Name":"next"
				},
				{
					"id":"7",
					"Name":"table"
				},
				{
					"id":"8",
					"Name":"enemy"
				},
				{
					"id":"9",
					"Name":"table"
				},
				{
					"id":"10",
					"Name":"enemyWalking"
				},
				{
					"id":"11",
					"Name":"next"
				}
			
			]
		},
		{
			"id":"20",
			"Name":"CylinderNext",
			"platforms":
			[
				{
					"id":"0",
					"Name":"finish"
				},
				{
					"id":"1",
					"Name":"finish"
				},
				{
					"id":"2",
					"Name":"finish"
				},
				{
					"id":"3",
					"Name":"finish"
				},
				{
					"id":"4",
					"Name":"finish"
				},
				{
					"id":"5",
					"Name":"finish"
				},
				{
					"id":"6",
					"Name":"finish"
				},
				{
					"id":"7",
					"Name":"finish"
				},
				{
					"id":"8",
					"Name":"finish"
				},
				{
					"id":"9",
					"Name":"finish"
				},
				{
					"id":"10",
					"Name":"finish"
				},
				{
					"id":"11",
					"Name":"finish"
				}
			
			]
		}
	]
}